^C:\USERS\DANNY\DOCUMENTS\DATAFORTRESS\FORTRESSMANAGER\FORTRESSMANAGER\FORTRESSMANAGER\ADMINACCOUNTCONTROL.RESX|C:\USERS\DANNY\DOCUMENTS\DATAFORTRESS\FORTRESSMANAGER\FORTRESSMANAGER\FORTRESSMANAGER\CHANGEADMINPASSWORD.RESX|C:\USERS\DANNY\DOCUMENTS\DATAFORTRESS\FORTRESSMANAGER\FORTRESSMANAGER\FORTRESSMANAGER\CLIENTACCOUNTCONTROL.RESX|C:\USERS\DANNY\DOCUMENTS\DATAFORTRESS\FORTRESSMANAGER\FORTRESSMANAGER\FORTRESSMANAGER\CLIENTACCOUNTDETAILS.RESX|C:\USERS\DANNY\DOCUMENTS\DATAFORTRESS\FORTRESSMANAGER\FORTRESSMANAGER\FORTRESSMANAGER\EDITADMINACCOUNT.RESX|C:\USERS\DANNY\DOCUMENTS\DATAFORTRESS\FORTRESSMANAGER\FORTRESSMANAGER\FORTRESSMANAGER\FORM1.RESX|C:\USERS\DANNY\DOCUMENTS\DATAFORTRESS\FORTRESSMANAGER\FORTRESSMANAGER\FORTRESSMANAGER\NEWADMINACCOUNT.RESX|C:\USERS\DANNY\DOCUMENTS\DATAFORTRESS\FORTRESSMANAGER\FORTRESSMANAGER\FORTRESSMANAGER\PROPERTIES\RESOURCES.RESX|C:\USERS\DANNY\DOCUMENTS\DATAFORTRESS\FORTRESSMANAGER\FORTRESSMANAGER\FORTRESSMANAGER\SERVERLOGON.RESX
C:\USERS\DANNY\DOCUMENTS\DATAFORTRESS\FORTRESSMANAGER\FORTRESSMANAGER\FORTRESSMANAGER\OBJ\X86\RELEASE\FORTRESSMANAGER.ADMINACCOUNTCONTROL.RESOURCES
C:\USERS\DANNY\DOCUMENTS\DATAFORTRESS\FORTRESSMANAGER\FORTRESSMANAGER\FORTRESSMANAGER\OBJ\X86\RELEASE\FORTRESSMANAGER.CHANGEADMINPASSWORD.RESOURCES
C:\USERS\DANNY\DOCUMENTS\DATAFORTRESS\FORTRESSMANAGER\FORTRESSMANAGER\FORTRESSMANAGER\OBJ\X86\RELEASE\FORTRESSMANAGER.CLIENTACCOUNTCONTROL.RESOURCES
C:\USERS\DANNY\DOCUMENTS\DATAFORTRESS\FORTRESSMANAGER\FORTRESSMANAGER\FORTRESSMANAGER\OBJ\X86\RELEASE\FORTRESSMANAGER.CLIENTACCOUNTDETAILS.RESOURCES
C:\USERS\DANNY\DOCUMENTS\DATAFORTRESS\FORTRESSMANAGER\FORTRESSMANAGER\FORTRESSMANAGER\OBJ\X86\RELEASE\FORTRESSMANAGER.EDITADMINACCOUNT.RESOURCES
C:\USERS\DANNY\DOCUMENTS\DATAFORTRESS\FORTRESSMANAGER\FORTRESSMANAGER\FORTRESSMANAGER\OBJ\X86\RELEASE\FORTRESSMANAGER.FORM1.RESOURCES
C:\USERS\DANNY\DOCUMENTS\DATAFORTRESS\FORTRESSMANAGER\FORTRESSMANAGER\FORTRESSMANAGER\OBJ\X86\RELEASE\FORTRESSMANAGER.NEWADMINACCOUNT.RESOURCES
C:\USERS\DANNY\DOCUMENTS\DATAFORTRESS\FORTRESSMANAGER\FORTRESSMANAGER\FORTRESSMANAGER\OBJ\X86\RELEASE\FORTRESSMANAGER.PROPERTIES.RESOURCES.RESOURCES
C:\USERS\DANNY\DOCUMENTS\DATAFORTRESS\FORTRESSMANAGER\FORTRESSMANAGER\FORTRESSMANAGER\OBJ\X86\RELEASE\FORTRESSMANAGER.SERVERLOGON.RESOURCES
