^C:\USERS\DANNY\DOCUMENTS\DATAFORTRESS\DATAFORTRESS\FORM1.RESX
^C:\USERS\DANNY\DOCUMENTS\DATAFORTRESS\DATAFORTRESS\PROPERTIES\RESOURCES.RESX
C:\WINDOWS\MICROSOFT.NET\FRAMEWORK64\V2.0.50727\CONFIG\SECURITY.CONFIG
C:\WINDOWS\MICROSOFT.NET\FRAMEWORK64\V2.0.50727\CONFIG\ENTERPRISESEC.CONFIG
