^C:\USERS\DANNY\DOCUMENTS\DATAFORTRESS\FORTRESSSERVER\DATAFORTRESSSERVER\DATAFORTRESSSERVER\FORTRESSSERVER.RESX|C:\USERS\DANNY\DOCUMENTS\DATAFORTRESS\FORTRESSSERVER\DATAFORTRESSSERVER\DATAFORTRESSSERVER\FORTRESSSERVERINSTALLER.RESX
C:\USERS\DANNY\DOCUMENTS\DATAFORTRESS\FORTRESSSERVER\DATAFORTRESSSERVER\DATAFORTRESSSERVER\OBJ\X86\DEBUG\DATAFORTRESSSERVER.FORTRESSSERVER.RESOURCES
C:\USERS\DANNY\DOCUMENTS\DATAFORTRESS\FORTRESSSERVER\DATAFORTRESSSERVER\DATAFORTRESSSERVER\OBJ\X86\DEBUG\DATAFORTRESSSERVER.FORTRESSSERVERINSTALLER.RESOURCES
